ELT_00030_01_02_2020-15_56_12
ELT_00032_01_02_2020-15_59_33
ELT_00035_01_02_2020-16_04_34
ELT_00043_01_02_2020-16_19_23
ELT_00045_01_02_2020-16_22_43
ELT_00056_01_02_2020-19_01_21
ELT_00062_01_07_2020-11_40_54
ELT_00063_01_07_2020-11_44_02
ELT_00064_01_07_2020-11_46_04
ELT_00067_01_07_2020-12_43_46
ELT_00068_01_07_2020-12_45_27
ELT_00070_01_07_2020-12_50_45
ELT_00112_04_06_2020-15_43_53
ELT_00133_04_05_2020-15_10_40
ELT_00136_04_05_2020-15_20_59
ELT_00137_04_05_2020-15_23_50