DualAir_00014_r2_6
DualAir_00151_r2_1
DualAir_00170_r2_6
DualAir_00171_r2_7
DualAir_00172_r2_8
DualAir_00173_r2_9
DualAir_00180_r2_1
DualAir_00181_r2_2
DualAir_00182_r2_3
DualAir_00183_r2_4
DualAir_00184_r2_5
DualAir_00185_r2_6
DualAir_00192_r2_2
DualAir_00233_r2_9
DualAir_00284_r2_5
DualAir_00259_r2_4
DualAir_00311_r2_2
DualAir_00314_r2_5
DualAir_00374_r2_5
DualAir_00393_r2_3
DualAir_00396_r2_6
DualAir_00406_r2_5
DualAir_00436_r1_7
DualAir_00976_r2_3
DualAir_00977_r2_4
DualAir_01202_r2_3
DualAir_01222_r2_3
DualAir_01230_r2_2
DualAir_01401_r2_9
