00010 000005 0 343 34 41 23
00010 000005 2 192 330 47 38
00010 000005 3 78 22 54 31
00010 000005 2 310 306 54 14
00010 000005 0 466 275 57 33
00010 000005 0 423 23 31 14
00010 000005 2 585 380 25 47
00010 000005 0 279 115 51 16
00010 000005 0 241 286 31 23
00010 000005 0 546 80 41 28
00010 000005 3 293 134 63 21
00010 000000 1 133 195 60 38
00010 000000 2 540 185 57 23
00010 000000 1 393 323 31 43
00010 000000 2 107 403 22 21
00010 000000 1 301 207 54 38
00010 000000 1 325 21 47 31
00010 000000 1 509 35 28 35
00010 000000 2 475 210 31 28
00010 000000 3 317 324 25 40
00010 000000 0 245 97 22 35
00010 000007 3 275 309 22 28
00010 000007 1 479 223 22 14
00010 000007 3 140 127 57 14
00010 000007 1 294 135 31 33
00010 000007 3 163 119 22 43
00010 000007 0 227 343 63 19
00010 000007 1 183 111 19 21
00010 000007 1 587 323 41 33
00010 000007 0 41 79 22 38
00010 000007 2 198 226 44 40
00010 000009 0 142 278 28 45
00010 000009 3 53 393 60 23
00010 000009 2 99 150 22 16
00010 000009 0 207 343 35 16
00010 000009 2 374 398 38 40
00010 000009 0 367 140 54 31
00010 000009 0 228 247 57 19
00010 000009 0 553 372 63 47
00010 000009 0 295 401 60 35
00010 000009 1 469 227 60 21
00010 000009 2 477 168 41 35
00010 000009 1 453 410 51 47
00010 000009 2 364 365 44 47
00010 000009 1 587 164 41 31
00010 000004 0 234 418 31 14
00010 000004 2 215 355 63 16
00010 000004 2 200 68 28 38
00010 000004 3 360 102 35 43
00010 000004 3 271 221 47 19
00010 000004 2 494 117 60 47
00010 000004 0 384 31 47 43
00010 000004 3 163 418 31 45
00010 000004 3 90 286 25 35
00010 000004 0 94 316 38 38
00010 000004 2 557 78 54 19
00010 000008 0 86 233 19 16
00010 000008 1 161 13 57 19
00010 000008 0 450 367 38 43
00010 000008 3 563 119 35 33
00010 000008 1 312 205 38 33
00010 000008 1 152 173 47 14
00010 000008 3 573 390 60 28
00010 000008 1 295 336 35 33
00010 000008 3 76 43 63 47
00010 000008 0 583 24 25 40
00010 000008 0 382 63 19 45
00010 000008 1 36 179 51 23
00010 000008 3 413 279 19 38
00010 000008 0 101 337 19 31
00010 000002 0 437 335 51 16
00010 000002 3 601 96 54 16
00010 000002 3 81 130 57 33
00010 000002 0 540 273 38 19
00010 000002 1 333 368 63 40
00010 000002 1 474 406 31 38
00010 000002 3 142 431 60 38
00010 000002 1 471 254 19 14
00010 000002 2 301 329 63 47
00010 000002 3 320 68 63 40
00010 000002 2 318 156 31 16
00010 000003 3 491 146 31 28
00010 000003 2 114 393 47 38
00010 000003 0 345 438 51 26
00010 000003 2 561 364 35 47
00010 000003 2 139 363 19 35
00010 000003 1 84 184 60 28
00010 000003 1 443 44 44 31
00010 000003 3 258 261 63 38
00010 000003 3 280 242 63 14
00010 000003 2 482 203 47 26
00010 000003 1 134 447 31 38
00010 000001 1 571 152 38 23
00010 000001 2 462 402 35 28
00010 000001 2 439 357 38 19
00010 000001 3 481 63 41 23
00010 000001 3 75 304 60 40
00010 000001 1 125 120 25 19
00010 000001 0 70 69 25 14
00010 000001 3 491 248 60 31
00010 000001 2 166 44 35 33
00010 000001 1 384 235 22 28
00010 000001 1 115 274 25 19
00010 000001 0 511 428 60 33
00010 000006
00010 000010 1 491 248 60 31
00010 000010 0 166 44 35 33
00010 000010 2 84 184 60 28
00010 000011