0 86 233 19 16
1 161 13 57 19
0 450 367 38 43
3 563 119 35 33
1 312 205 38 33
1 152 173 47 14
3 573 390 60 28
1 295 336 35 33
3 76 43 63 47
0 583 24 25 40
0 382 63 19 45
1 36 179 51 23
3 413 279 19 38
0 101 337 19 31
